Raw Data Processing and Exploration
…
dd <- map(ff, function(f) {
  d <- read_csv(f)
  bind_cols(fix_sitename(d$sitename), d) %>%
    select(-sitename)
})

names(dd) <- gsub("s4_(.*)_formatted.csv", "\\1", basename(ff))

The object dd is a list of data frames for each file. For example, the first element is the data for canopy_height.

dd$canopy_height

# A tibble: 35,510 x 5
   range column cultivar   day canopy_height
   <int>  <int> <chr>    <dbl>         <dbl>
 1    26      8 PI329569   133           364
 2    26      9 PI152923   133           359
 3    26     10 PI152923   133           366
 4    26     13 PI330803   133           367
 5    26     14 PI330803   133           368
 6    26     15 PI585454   133           360
 7    27      2 <NA>       133           349
 8    27      3 PI641807   133           328
 9    27      8 PI641835   133           392
10    27      9 PI170787   133           340
# … with 35,500 more rows
…
  xn
}

Now, we will create the base of our final dataset by creating a data frame of all unique values of range/column/cultivar/day across all datasets.

dat <- map(dd, ~ select(., cultivar, range, column, day)) %>%
  bind_rows() %>%
  distinct() %>%
  arrange(cultivar, range, column, day)

dat

# A tibble: 35,040 x 4
   cultivar range column   day
   <chr>    <int>  <int> <dbl>
 1 PI145619    27     11    12
 2 PI145619    27     11    13
 3 PI145619    27     11    14
 4 PI145619    27     11    15
 5 PI145619    27     11    16
 6 PI145619    27     11    17
 7 PI145619    27     11    18
 8 PI145619    27     11    19
 9 PI145619    27     11    22
10 PI145619    27     11    24
# … with 35,030 more rows

Now we can join all the datasets to thie base dataset.

dat <- reduce(c(list(dat), map(dd, prepare_data)), left_join)

dat

# A tibble: 35,040 x 14
   cultivar range column   day canopy_height canopy_height_n
   <chr>    <int>  <int> <dbl>         <dbl>           <int>
 1 PI145619    27     11    12            10               3
 2 PI145619    27     11    13            10               2
 3 PI145619    27     11    14            10               2
 4 PI145619    27     11    15            10               2
 5 PI145619    27     11    16            10               2
 6 PI145619    27     11    17            10               2
 7 PI145619    27     11    18            12               2
 8 PI145619    27     11    19            12               3
 9 PI145619    27     11    22            14               3
10 PI145619    27     11    24            14               3
# … with 35,030 more rows, and 8 more variables: leaf_angle_alpha <dbl>,
#   leaf_angle_alpha_n <int>, leaf_angle_beta <dbl>,
#   leaf_angle_beta_n <int>, leaf_angle_chi <dbl>, leaf_angle_chi_n <int>,
#   leaf_angle_mean <dbl>, leaf_angle_mean_n <int>

Weather Data

Weather data is also provided.

f <- "data/raw/terra_tabular/S4 Daily UA-MAC AZMET Weather Station.csv"
weather <- read_csv(f)

weather

# A tibble: 95 x 13
   date       air_temperature… air_temperature… air_temperature…
   <date>                <dbl>            <dbl>            <dbl>
 1 2017-04-20             288.             302.             295.
 2 2017-04-21             292.             307.             299.
 3 2017-04-23             299.             311.             307.
 4 2017-04-24             293.             310.             299.
 5 2017-04-25             294.             303.             298.
 6 2017-04-26             296.             298.             297.
 7 2017-04-27             292.             301.             296.
 8 2017-04-28             295.             302.             298.
 9 2017-05-02             291.             293.             292.
10 2017-05-03             291.             308.             300.
# … with 85 more rows, and 9 more variables: wind_speed_min <dbl>,
#   wind_speed_max <dbl>, wind_speed_avg <dbl>,
#   relative_humidity_min <dbl>, relative_humidity_max <dbl>,
#   relative_humidity_avg <dbl>, precipitation_rate_min <dbl>,
#   precipitation_rate_max <dbl>, precipitation_rate_avg <dbl>
…
