Exploration
…
Ryan Hafen

2019-10-29

Commit docs

In this exploratory analysis we are working with the data we processed here.

library(tidyverse)

dat <- readRDS("output/s4_data.rds")
dat

# A tibble: 35,040 x 14
   cultivar range column   day canopy_height canopy_height_n
   <chr>    <int>  <int> <dbl>         <dbl>           <int>
 1 PI145619    27     11    12            10               3
 2 PI145619    27     11    13            10               2
 3 PI145619    27     11    14            10               2
 4 PI145619    27     11    15            10               2
 5 PI145619    27     11    16            10               2
 6 PI145619    27     11    17            10               2
 7 PI145619    27     11    18            12               2
 8 PI145619    27     11    19            12               3
 9 PI145619    27     11    22            14               3
10 PI145619    27     11    24            14               3
# … with 35,030 more rows, and 8 more variables: leaf_angle_alpha <dbl>,
#   leaf_angle_alpha_n <int>, leaf_angle_beta <dbl>,
#   leaf_angle_beta_n <int>, leaf_angle_chi <dbl>, leaf_angle_chi_n <int>,
#   leaf_angle_mean <dbl>, leaf_angle_mean_n <int>
Grid Exploration

There are 791 grid cells in total, defined by range and column.

Unique cultivars per grid cell

A simple check to do up front is to see if cultivar is unique per grid cell.

dat %>%
  distinct(range, column, cultivar) %>%
  group_by(range, column) %>%
  tally() %>%
  arrange(-n)

# A tibble: 791 x 3
# Groups:   range [53]
   range column     n
   <int>  <int> <int>
 1     2      2     1
 2     2      3     1
 3     2      4     1
 4     2      5     1
 5     2      6     1
 6     2      7     1
 7     2      8     1
 8     2      9     1
 9     2     10     1
10     2     11     1
# … with 781 more rows

This verifies that there is only one unique cultivar per grid cell. This is true for NA cultivars as well.

How many grid cells do cultivars show up in?

gc_cult <- dat %>%
  distinct(range, column, cultivar) %>%
  group_by(cultivar) %>%
  tally() %>%
  arrange(-n)

gc_cult

# A tibble: 271 x 2
   cultivar     n
   <chr>    <int>
 1 <NA>        94
 2 PI641807     6
 3 PI145619     4
 4 PI145633     4
 5 PI152727     4
 6 PI152728     4
 7 PI152923     4
 8 PI152961     4
 9 PI152971     4
10 PI153877     4
# … with 261 more rows
…
There are 94 grid cells with NA as the cultivar, but for known cultivars the maximum is presence in 6 cells, with presence in 2 cells being the most common (about 70% of cultivars are in 2 cells).

Measurements per grid cell

We know measurements are taken of the various variables on different days. To get a feel for the prevalence of measurement across the grid, we’ll first transform our data into long format, with one row per measurement, instead of multiple columns for each variable measured.

dat_long <- dat %>%
  select(-ends_with("_n")) %>%
  pivot_longer(cols = canopy_height:leaf_angle_mean,
    names_to = "variable") %>%
  filter(!is.na(value))

dat_long

# A tibble: 103,318 x 6
   cultivar range column   day variable      value
   <chr>    <int>  <int> <dbl> <chr>         <dbl>
 1 PI145619    27     11    12 canopy_height    10
 2 PI145619    27     11    13 canopy_height    10
 3 PI145619    27     11    14 canopy_height    10
 4 PI145619    27     11    15 canopy_height    10
 5 PI145619    27     11    16 canopy_height    10
 6 PI145619    27     11    17 canopy_height    10
 7 PI145619    27     11    18 canopy_height    12
 8 PI145619    27     11    19 canopy_height    12
 9 PI145619    27     11    22 canopy_height    14
10 PI145619    27     11    24 canopy_height    14
# … with 103,308 more rows
…
